<?xml version="1.0" encoding="utf-8"?>
<!-- Generator: Adobe Illustrator 22.1.0, SVG Export Plug-In . SVG Version: 6.00 Build 0)  -->
<svg version="1.1" id="Ebene_1" xmlns="http://www.w3.org/2000/svg" xmlns:xlink="http://www.w3.org/1999/xlink" x="0px" y="0px"
	 viewBox="0 0 128 128" style="enable-background:new 0 0 128 128;" xml:space="preserve">
<g>
	<path d="M64,0C28.7,0,0,28.7,0,64s28.7,64,64,64c35.3,0,64-28.7,64-64S99.3,0,64,0z M64,117.8c-29.7,0-53.8-24.1-53.8-53.8
		S34.3,10.2,64,10.2c29.7,0,53.8,24.1,53.8,53.8S93.7,117.8,64,117.8z"/>
	<path d="M85.6,41.1c-2.1-1.9-5.4-1.7-7.3,0.4L62.7,58.6L39.9,35.4c-0.9-1-2.2-1.6-3.6-1.6c-1.4,0-2.8,0.5-3.7,1.5c0,0,0,0,0,0
		c-2,2-2,5.2-0.1,7.3l26.7,27.1c0.9,1,2.2,1.6,3.6,1.6c1.4,0,2.8-0.5,3.7-1.5c0,0,0,0,0,0c0.5-0.5,19.4-21.4,19.4-21.4
		c0.9-1,1.4-2.3,1.4-3.6C87.2,43.4,86.6,42.1,85.6,41.1C85.6,41.1,85.6,41.1,85.6,41.1z"/>
</g>
</svg>
